Year,All_field,Science,Computer,Geosciences,Meteorology
2007,31240581,25974334,1025809,1807589,354500
2008,32100859,26546800,1036436,1827916,337720
2009,33442570,27541142,1106879,1890417,322239
2010,37477582,30791579,1175343,2013754,338687
2011,40768251,33373047,1294280,2181206,383740
2012,40142223,32497010,1360430,2203399,389095
2013,39445931,31764827,1552301,2094690,397620
2014,37960175,30399130,1389979,2049492,389375
2015,37848552,30320061,1419059,2065967,453710
2016,38793542,31090354,1442771,1992990,513275
