﻿Rank,Institution,All R&D expenditures,,Federal government,,State and local government,,Institution funds,,Business,,Nonprofit organizations,,All other sources
,All institutions,"71,971,736",,"38,860,649",,"4,033,779",,"18,014,538",,"4,215,883",,"4,628,526",,"2,218,361"
1,Johns Hopkins U.a,"2,431,180",,"2,104,653",,"6,107",,"96,513",,"75,327",,"138,981",,"9,599"
2,"U. Michigan, Ann Arbor","1,436,448",,"786,749",,"3,428",,"503,955",,"69,932",,"56,625",,"15,759"
3,U. Pennsylvania,"1,296,429",,"655,791",,"11,671",,"429,433",,"116,812",,"78,762",,"3,960"
4,"U. California, San Francisco","1,294,261",,"602,705",,"35,058",,"309,461",,"78,268",,"163,392",,"105,377"
5,"U. Washington, Seattle","1,277,679",,"946,787",,"15,087",,"105,640",,"43,396",,"117,531",,"49,238"
6,U. Wisconsin-Madison,"1,157,680",,"567,132",,"64,823",,"367,883",,"23,930",,"95,700",,"38,212"
7,"U. California, San Diego","1,087,117",,"604,298",,"31,739",,"193,927",,"79,400",,"79,177",,"98,576"
8,Harvard U.,"1,077,253",,"558,611",,"2,591",,"306,914",,"50,651",,"138,525",,"19,961"
9,Stanford U.,"1,066,269",,"694,693",,"34,556",,"105,607",,"99,469",,"115,086",,"16,858"
10,Duke U.,"1,055,778",,"575,521",,131,,"145,698",,"232,793",,"87,886",,"13,749"
11,"U. North Carolina, Chapel Hill","1,045,338",,"632,426",,"29,616",,"263,316",,"33,748",,"67,144",,"19,088"
12,"U. California, Los Angeles","1,037,528",,"487,869",,"39,157",,"215,703",,"62,200",,"159,309",,"73,290"
13,Cornell U.,"974,199",,"430,987",,"80,457",,"252,676",,"50,096",,"127,585",,"32,398"
14,Massachusetts Institute of Technology,"946,159",,"503,858",,"1,212",,"92,076",,"159,451",,"94,808",,"94,754"
15,"U. Minnesota, Twin Cities","910,181",,"469,260",,"65,767",,"286,657",,"33,275",,"14,625",,"40,597"
16,"Texas A&M U., College Station and Health Science Center","892,718",,"293,551",,"203,835",,"260,868",,"44,707",,"65,433",,"24,324"
17,"U. Pittsburgh, Pittsburgh","889,793",,"580,650",,"7,260",,"154,344",,"16,701",,"49,098",,"81,740"
18,Yale U.,"881,765",,"503,221",,"1,754",,"239,945",,"62,274",,"70,469",,"4,102"
19,U. Texas M. D. Anderson Cancer Center,"852,095",,"155,044",,"248,301",,"192,922",,"89,454",,"40,814",,"125,560"
20,Columbia U. in the City of New York,"837,312",,"600,457",,"6,555",,"70,264",,"53,861",,"82,667",,"23,508"
21,"Pennsylvania State U., University Park and Hershey Medical Center","825,561",,"538,938",,"52,052",,"165,764",,"30,833",,"36,776",,"1,198"
22,Ohio State U.,"818,464",,"454,834",,"54,501",,"117,549",,"127,731",,"37,447",,"26,402"
23,New York U.,"809,739",,"350,355",,"11,624",,"218,838",,"29,805",,"73,603",,"125,514"
24,U. Florida,"791,294",,"307,140",,"135,215",,"242,392",,"39,263",,"36,736",,"30,548"
25,Georgia Institute of Technology,"790,706",,"568,430",,"7,491",,"152,516",,"46,477",,"10,936",,"4,856"
26,"U. California, Berkeley","774,255",,"341,807",,"44,255",,"165,356",,"65,831",,"101,163",,"55,843"
27,"U. California, Davis","741,892",,"339,209",,"65,393",,"199,806",,"46,166",,"40,834",,"50,484"
28,"Washington U., Saint Louis","741,115",,"442,335",,"3,117",,"144,947",,"84,182",,"63,289",,"3,245"
29,Northwestern U.,"713,491",,"432,413",,"2,901",,"190,446",,"38,306",,"41,599",,"7,826"
30,U. Southern California,"702,866",,"409,516",,"7,871",,"134,338",,"34,800",,"46,116",,"70,225"
31,Vanderbilt U.,"640,842",,"405,589",,600,,"166,653",,"34,392",,"27,405",,"6,203"
32,"Rutgers, State U. New Jersey, New Brunswick","630,212",,"321,432",,"85,765",,"167,361",,"26,151",,"26,551",,"2,952"
33,"U. Illinois, Urbana-Champaign","625,180",,"335,056",,"32,205",,"177,548",,"39,355",,"22,257",,"18,759"
34,"U. Texas, Austin","621,692",,"357,309",,"25,528",,"128,483",,"67,755",,"35,308",,"7,309"
35,Emory U.,"614,527",,"361,288",,213,,"172,088",,"34,223",,"43,088",,"3,627"
36,Michigan State U.,"613,369",,"310,225",,"40,247",,"218,331",,"10,509",,"16,765",,"17,292"
37,"Purdue U., West Lafayette","606,302",,"229,093",,"85,626",,"191,074",,"47,810",,"44,020",,"8,679"
38,U. Arizona,"604,464",,"262,989",,"23,021",,"181,650",,"13,708",,"31,724",,"91,372"
39,Baylor C. of Medicine,"572,527",,"267,849",,"27,164",,"178,301",,"23,742",,"74,390",,"1,081"
40,Icahn School of Medicine at Mt. Sinai,"540,296",,"342,104",,"6,885",,"89,594",,"47,474",,"51,523",,"2,716"
41,"U. Maryland, College Park","539,388",,"369,285",,"17,300",,"134,026",,"6,345",,"9,376",,"3,056"
42,"U. Alabama, Birmingham","537,825",,"348,632",,"5,670",,"106,745",,"50,040",,"26,738",,0
43,Virginia Polytechnic Institute and State U.,"521,773",,"195,859",,"58,517",,"219,322",,"40,349",,"3,729",,"3,997"
44,Arizona State U.,"518,239",,"212,396",,"31,479",,"205,144",,"17,683",,"24,893",,"26,644"
45,"Indiana U., Bloomington","508,766",,"221,801",,"3,598",,"209,891",,"22,167",,"49,016",,"2,293"
46,"U. South Florida, Tampa","505,965",,"228,365",,"27,561",,"199,912",,"20,732",,"24,952",,"4,443"
47,North Carolina State U.,"489,918",,"202,336",,"95,214",,"119,551",,"71,018",,"1,197",,602
48,U. Iowa,"473,362",,"237,743",,"8,072",,"183,129",,"24,430",,"19,873",,115
49,U. Colorado Boulder,"453,123",,"371,995",,"2,137",,"26,983",,"10,252",,"38,934",,"2,822"
50,U. Colorado Denver and Anschutz Medical Campus,"443,705",,"298,960",,"25,303",,"30,007",,"36,608",,"42,155",,"10,672"
51,U. Texas Southwestern Medical Center,"442,666",,"185,263",,"87,606",,"54,687",,"20,890",,"54,338",,"39,882"
52,U. Cincinnati,"430,579",,"231,817",,"6,599",,"115,282",,"25,394",,"51,345",,142
53,U. Chicago,"420,997",,"297,953",,271,,"40,750",,"27,821",,"53,706",,496
54,U. Georgia,"410,345",,"143,886",,"33,704",,"173,986",,"18,180",,"33,776",,"6,813"
55,Case Western Reserve U.,"405,655",,"321,214",,999,,"46,517",,"10,968",,"20,719",,"5,238"
56,"U. Virginia, Charlottesville","397,458",,"210,980",,"4,366",,"95,103",,"21,470",,"28,978",,"36,561"
57,Boston U.,"395,921",,"253,475",,336,,"106,145",,"13,782",,"16,854",,"5,329"
58,"U. Maryland, Baltimore","393,876",,"205,988",,"27,137",,"113,282",,"18,153",,"26,202",,"3,114"
59,"SUNY, U. Buffalo","389,569",,"182,883",,"34,862",,"112,844",,"22,808",,"20,893",,"15,279"
60,California Institute of Technology,"371,060",,"265,206",,"1,362",,"28,916",,"14,915",,"36,741",,"23,920"
61,Scripps Research Institute,"364,670",,"242,489",,"1,273",,"74,466",,"21,052",,"25,390",,0
62,U. Miami,"358,441",,"195,328",,"8,596",,"92,982",,"27,063",,"33,961",,511
63,U. Utah,"350,212",,"233,652",,"2,503",,"57,674",,"31,447",,"21,097",,"3,839"
64,U. Kentucky,"349,661",,"154,559",,"45,625",,"105,167",,"12,063",,"15,893",,"16,354"
65,Brown U.,"347,016",,"136,931",,292,,"187,769",,"3,069",,"16,044",,"2,911"
66,U. Rochester,"346,165",,"266,322",,"6,056",,"33,139",,"22,538",,"15,120",,"2,990"
67,"U. California, Irvine","345,319",,"177,779",,"24,256",,"65,366",,"20,830",,"26,530",,"30,558"
68,"U. Illinois, Chicago","337,296",,"187,990",,"4,881",,"111,307",,"7,074",,"23,509",,"2,535"
69,Rockefeller U.,"335,136",,"80,667",,611,,"228,276",,"8,711",,"16,412",,459
70,Washington State U.,"334,082",,"136,646",,"49,585",,"122,135",,"12,903",,"7,722",,"5,091"
71,"Colorado State U., Fort Collins","331,862",,"232,108",,"17,683",,"49,005",,"10,464",,"15,053",,"7,549"
72,Oregon Health and Science U.,"331,524",,"232,688",,158,,"34,098",,"24,395",,"38,143",,"2,042"
73,Iowa State U.,"328,385",,"125,397",,"43,876",,"124,116",,"23,215",,"8,915",,"2,866"
74,Carnegie Mellon U.,"319,168",,"190,620",,"1,707",,"93,757",,"20,470",,"5,339",,"7,275"
75,"SUNY, Polytechnic Institute","316,680",,"21,380",,"72,726",,"40,790",,"167,935",,"13,609",,240
76,Princeton U.,"305,147",,"162,003",,584,,"104,092",,"10,211",,"22,455",,"5,802"
77,"U. Hawaii, Manoa","304,476",,"190,336",,"15,097",,"78,951",,"5,687",,"11,889",,"2,516"
78,Albert Einstein C. of Medicine,"300,909",,"188,521",,"4,413",,"76,620",,"4,303",,"15,803",,"11,249"
79,U. Kansas,"297,933",,"140,002",,"25,080",,"100,375",,"14,341",,"17,844",,291
80,"U. Nebraska, Lincoln","294,856",,"95,426",,"59,309",,"107,387",,"19,418",,"4,548",,"8,768"
81,"Louisiana State U., Baton Rouge","291,972",,"86,754",,"78,867",,"106,009",,"9,628",,"9,309",,"1,405"
82,Florida State U.,"268,288",,"126,289",,"4,950",,"114,727",,"2,697",,"13,030",,"6,595"
83,U. Connecticut,"265,522",,"146,390",,"8,814",,"81,770",,"11,111",,"11,450",,"5,987"
84,Medical U. South Carolina,"260,098",,"124,212",,"4,466",,"94,262",,"18,426",,"9,743",,"8,989"
85,"U. Oklahoma, Norman and Health Science Center","259,998",,"134,772",,"34,140",,"63,089",,"11,558",,"8,126",,"8,313"
86,Uniformed Services U. of the Health Sciences,"256,203",,"175,007",,0,,"78,194",,0,,"3,002",,0
87,Oregon State U.,"254,275",,"158,142",,"46,342",,"25,570",,"9,349",,"2,071",,"12,801"
88,"U. Massachusetts, Medical School","253,099",,"181,446",,"1,646",,"35,713",,"11,483",,"19,789",,"3,022"
89,"U. Missouri, Columbia","248,300",,"108,674",,"2,503",,"114,343",,"5,322",,"9,044",,"8,414"
90,Temple U.,"246,392",,"140,775",,"2,208",,"68,000",,"13,677",,"16,266",,"5,466"
91,U. Central Florida,"242,308",,"87,417",,"9,376",,"115,355",,"11,816",,"3,800",,"14,544"
92,U. New Mexico,"239,550",,"159,280",,"3,900",,"62,250",,"2,504",,"9,545",,"2,071"
93,Mississippi State U.,"239,446",,"87,277",,"81,838",,"56,620",,"11,954",,"1,239",,518
94,"U. Texas Health Science Center, Houston","237,016",,"121,098",,"38,668",,"28,503",,"11,565",,"20,535",,"16,647"
95,Dartmouth C.,"233,636",,"139,090",,891,,"69,269",,"7,757",,"10,553",,"6,076"
96,George Washington U.,"231,829",,"142,889",,"1,162",,"59,370",,"1,994",,"23,554",,"2,860"
97,"SUNY, Stony Brook U.","230,621",,"118,549",,"6,593",,"86,593",,"6,640",,"6,648",,"5,598"
98,"U. California, Santa Barbara","230,139",,"116,775",,"7,000",,"45,139",,"22,661",,"20,350",,"18,214"
99,Virginia Commonwealth U.,"225,999",,"143,701",,"5,236",,"55,417",,"7,846",,"13,799",,0
100,Wayne State U.,"221,537",,"111,532",,"3,328",,"76,934",,"7,936",,"16,309",,"5,498"
101,"U. Massachusetts, Amherst","214,576",,"106,269",,"25,021",,"65,358",,"8,336",,"7,585",,"2,007"
102,Woods Hole Oceanographic Institution,"212,374",,"166,010",,"1,275",,"27,538",,"3,717",,"7,465",,"6,369"
103,"U. South Carolina, Columbia","209,271",,"93,885",,"4,042",,"98,640",,"6,489",,"6,215",,0
104,U. Notre Dame,"202,216",,"87,129",,693,,"76,045",,"5,832",,"19,475",,"13,042"
105,Medical C. Wisconsin,"199,925",,"108,529",,802,,"55,848",,"12,309",,"19,089",,"3,348"
106,"U. Texas Health Science Center, San Antonio","194,885",,"89,742",,"15,968",,"57,900",,"8,949",,"21,589",,737
107,Kansas State U.,"193,254",,"71,224",,"43,404",,"65,257",,"4,823",,"6,177",,"2,369"
108,Tufts U.,"189,085",,"126,109",,"3,660",,"23,065",,"8,900",,"19,444",,"7,907"
109,Clemson U.,"183,965",,"60,165",,"17,573",,"82,062",,"19,922",,"3,420",,823
110,Georgetown U.,"183,788",,"83,827",,"2,200",,"52,837",,"10,405",,"22,671",,"11,848"
111,"U. Tennessee, Knoxville","183,268",,"109,722",,"14,399",,"49,692",,"4,833",,"2,283",,"2,339"
112,U. Louisville,"182,454",,"71,760",,"11,402",,"65,078",,"7,688",,"8,330",,"18,196"
113,"Oklahoma State U., Stillwater","181,617",,"42,976",,"30,725",,"93,337",,"13,647",,664,,268
114,Utah State U.,"180,590",,"125,661",,"19,082",,"18,137",,"5,636",,281,,"11,793"
115,U. Texas Medical Branch,"179,541",,"100,464",,"4,581",,"52,093",,"4,051",,"18,352",,0
116,U. Delaware,"176,295",,"113,217",,"10,840",,"37,043",,"5,989",,"6,735",,"2,471"
117,Texas Tech U.,"172,521",,"32,405",,"29,100",,"84,473",,"15,809",,"9,761",,973
118,West Virginia U.,"172,477",,"72,751",,"11,378",,"61,303",,"10,213",,"1,928",,"14,904"
119,Florida International U.,"170,846",,"76,127",,"10,341",,"77,110",,"1,090",,"5,064",,"1,114"
120,Wake Forest U.,"170,006",,"141,052",,"7,152",,"1,279",,"10,949",,"7,442",,"2,132"
121,Tulane U.,"165,438",,"89,087",,"4,363",,"43,009",,"5,338",,"13,470",,"10,171"
122,U. Houston,"162,049",,"62,703",,"40,174",,"41,637",,"8,206",,"8,227",,"1,102"
123,Georgia State U.,"161,314",,"52,351",,"13,666",,"85,937",,97,,"8,352",,911
124,North Dakota State U.,"156,297",,"35,590",,"51,634",,"61,170",,"1,792",,"1,608",,"4,503"
125,Rice U.,"154,543",,"83,273",,"7,136",,"35,699",,"10,970",,"14,267",,"3,198"
126,"Auburn U., Auburn","152,381",,"54,751",,"37,061",,"46,529",,"5,692",,"1,589",,"6,759"
127,"U. California, Riverside","152,233",,"70,489",,"6,096",,"46,724",,"7,492",,"6,987",,"14,445"
128,"U. California, Santa Cruz","151,192",,"95,294",,"2,948",,"27,855",,"5,200",,"8,973",,"10,922"
129,"U. Nebraska, Medical Center","150,694",,"76,221",,"2,399",,"44,276",,"7,463",,"12,638",,"7,697"
130,"U. Arkansas, Fayetteville","145,020",,"40,642",,"51,325",,"39,610",,"10,290",,"2,045",,"1,108"
131,U. New Hampshire,"145,015",,"93,599",,"4,197",,"34,622",,"7,225",,"4,776",,596
132,"U. Alaska, Fairbanks","144,259",,"89,940",,"6,919",,"41,831",,"3,690",,975,,904
133,New Jersey Institute of Technology,"130,812",,"67,490",,"4,352",,"46,046",,"2,666",,"8,752",,"1,506"
134,Northeastern U.,"129,040",,"81,124",,"1,598",,"30,769",,"7,469",,"7,598",,482
135,Drexel U.,"127,909",,"67,020",,"4,325",,"37,840",,"4,320",,"13,319",,"1,085"
136,U. Arkansas for Medical Sciences,"125,378",,"48,999",,"5,719",,"44,393",,"1,210",,0,,"25,057"
137,Thomas Jefferson U.,"122,396",,"58,866",,"1,998",,"38,342",,"10,629",,"7,850",,"4,711"
138,U. Mississippi,"121,665",,"64,510",,"1,115",,"48,140",,"3,542",,"3,229",,"1,129"
139,"SUNY, U. Albany","120,232",,"77,734",,"2,846",,"30,651",,"1,457",,"7,330",,214
140,U. Dayton,"116,589",,"100,955",,"4,564",,"3,379",,"6,328",,"1,109",,254
141,U. Vermont,"115,955",,"83,124",,564,,"22,349",,"3,372",,"5,396",,"1,150"
142,New Mexico State U.,"114,619",,"62,292",,"20,107",,"20,014",,"3,691",,"2,322",,"6,193"
143,"Montana State U., Bozeman","112,073",,"68,471",,"7,066",,"28,922",,"2,592",,"2,481",,"2,541"
144,U. Wyoming,"112,056",,"63,951",,"25,637",,"15,270",,"4,149",,"1,661",,"1,388"
145,George Mason U.,"108,899",,"58,864",,"3,041",,"37,597",,"2,649",,"5,606",,"1,142"
146,"U. Texas, Dallas","106,205",,"35,451",,"11,864",,"32,410",,"5,505",,"20,975",,0
147,U. Idaho,"102,457",,"51,295",,"29,430",,"14,950",,"2,236",,"1,375",,"3,171"
148,Rensselaer Polytechnic Institute,"101,127",,"52,163",,"6,439",,"31,456",,"7,358",,"3,711",,0
149,U. Oregon,"100,754",,"66,850",,702,,"28,560",,165,,"3,765",,712
150,U. Rhode Island,"97,900",,"61,641",,"6,626",,"23,093",,"4,799",,"1,011",,730
151,"U. Alabama, Huntsville","96,865",,"69,824",,"2,022",,"22,370",,"2,124",,355,,170
152,"U. Nevada, Reno","95,475",,"53,371",,"15,406",,"20,481",,"1,698",,"1,458",,"3,061"
153,"U. Texas, El Paso","91,330",,"42,423",,"19,101",,"16,025",,"1,403",,"3,988",,"8,390"
154,San Diego State U.,"90,722",,"44,495",,"3,869",,"37,628",,421,,"3,053",,"1,256"
155,Cold Spring Harbor Laboratory,"88,943",,"50,478",,206,,"15,765",,"3,755",,"18,739",,0
156,"U. Texas, Arlington","87,386",,"26,664",,"18,369",,"29,289",,"7,138",,"2,126",,"3,800"
157,"SUNY, Binghamton U.","85,192",,"18,562",,"3,099",,"58,827",,"3,727",,417,,560
158,Syracuse U.,"84,651",,"36,106",,"5,973",,"31,082",,"4,516",,"6,930",,44
159,"U. Louisiana, Lafayette","80,099",,"16,893",,"4,362",,"40,653",,"10,894",,"7,297",,0
160,U. Maine,"79,222",,"34,277",,"16,794",,"23,187",,"3,060",,"1,696",,208
161,Cleveland State U.,"77,720",,"49,925",,"1,676",,"17,859",,"3,992",,"4,171",,97
162,Brandeis U.,"73,435",,"48,273",,26,,"12,385",,"4,635",,"6,181",,"1,935"
163,Rush U.,"73,351",,"50,332",,25,,"8,778",,"10,906",,"3,310",,0
164,Michigan Technological U.,"72,536",,"29,774",,"1,079",,"32,079",,"7,066",,731,,"1,807"
165,"U. Tennessee, Health Science Center","71,547",,"38,374",,"2,933",,"13,921",,"3,824",,"6,012",,"6,483"
166,Augusta U.,"71,338",,"50,294",,771,,"13,190",,"2,838",,"3,605",,640
167,U. North Dakota,"70,275",,"42,425",,"10,528",,"6,937",,"9,117",,736,,532
168,"U. Maryland, Baltimore County","70,166",,"50,984",,"1,867",,"14,217",,"1,734",,"1,169",,195
169,"U. Montana, Missoula","70,059",,"38,753",,"3,086",,"22,473",,709,,"1,340",,"3,698"
170,Old Dominion U.,"70,054",,"39,743",,"4,366",,"19,600",,"3,367",,"1,101",,"1,877"
171,"U. Tennessee, Knoxville, Institute of Agriculture","69,136",,"18,598",,"1,140",,"42,989",,"3,597",,"1,076",,"1,736"
172,"U. Massachusetts, Lowell","68,494",,"27,694",,"2,300",,"31,572",,"4,775",,"1,322",,831
173,Wichita State U.,"65,930",,"10,442",,"10,277",,"11,752",,"33,193",,253,,13
174,Naval Postgraduate School,"65,529",,"56,045",,0,,"8,170",,327,,0,,987
175,"U. Massachusetts, Boston","64,223",,"30,608",,"5,388",,"22,886",,"1,291",,"3,616",,434
176,C. of William and Mary and Virginia Institute of Marine Science,"63,027",,"34,133",,"3,245",,"20,509",,"1,093",,"3,955",,92
177,"U. Nevada, Las Vegas","62,825",,"25,613",,"3,527",,"30,130",,860,,300,,"2,395"
178,"U. Alabama, Tuscaloosa","62,549",,"28,425",,"9,258",,"21,422",,"2,440",,486,,518
179,"CUNY, City C.","62,484",,"37,525",,"2,862",,"19,188",,"1,527",,204,,"1,178"
180,Colorado School of Mines,"60,931",,"35,677",,"4,409",,"2,736",,"14,548",,"1,602",,"1,959"
181,South Dakota State U.,"60,677",,"29,633",,"17,849",,"6,701",,944,,"4,834",,716
182,"U. Texas, San Antonio","59,831",,"25,813",,"8,493",,"18,678",,"2,840",,"4,007",,0
183,U. Wisconsin-Milwaukee,"59,813",,"25,651",,"21,811",,"7,037",,"2,604",,"1,626",,"1,084"
184,U. Southern Mississippi,"59,363",,"25,482",,"12,973",,"11,829",,"8,245",,803,,31
185,Ohio U.,"59,117",,"14,678",,"2,565",,"33,005",,"4,684",,"3,179",,"1,006"
186,U. Akron,"58,817",,"25,433",,"4,430",,"21,126",,"4,097",,"2,374",,"1,357"
187,"Indiana U.-Purdue U., Indianapolis","57,853",,"19,954",,467,,"28,611",,"2,835",,"5,432",,554
188,American U.,"57,064",,"9,554",,617,,"37,933",,614,,"7,795",,551
189,Portland State U.,"56,572",,"32,021",,"10,080",,"9,125",,"1,099",,"3,859",,388
190,Wright State U.,"55,484",,"30,162",,"6,568",,"15,635",,"1,613",,"1,397",,109
191,U.S. Air Force Academy,"55,358",,"46,958",,44,,"6,030",,881,,79,,"1,366"
192,"U. Maryland, Center for Environmental Science","54,974",,"13,957",,"4,995",,"31,751",,"2,094",,"2,060",,117
193,Boston C.,"54,469",,"27,033",,"2,083",,"14,208",,379,,"10,392",,374
194,Texas State U.,"54,298",,"21,049",,"7,370",,"19,756",,"1,262",,"4,861",,0
195,"Southern Illinois U., Carbondale","53,172",,"14,574",,"1,788",,"28,485",,"7,233",,"1,092",,0
196,"U. North Texas, Health Science Center","50,567",,"27,163",,"8,474",,"10,939",,"2,721",,"1,174",,96
197,U. Toledo,"50,019",,"27,802",,"1,781",,"15,507",,"3,707",,"1,202",,20
198,U. Memphis,"48,321",,"18,098",,"3,865",,"18,991",,"4,304",,"2,565",,498
199,U. South Alabama,"46,670",,"17,628",,"1,800",,"24,974",,335,,976,,957
200,"U. Puerto Rico, Medical Sciences Campus","46,232",,"33,348",,"1,759",,"8,163",,"2,962",,0,,0
201,Yeshiva U.,"46,130",,"30,266",,"1,036",,"13,983",,0,,845,,0
202,Rochester Institute of Technology,"45,518",,"26,149",,"3,069",,"12,177",,"3,170",,936,,17
203,Florida A&M U.,"45,390",,"37,363",,"1,692",,"5,765",,515,,55,,0
204,"Louisiana State U., Health Sciences Center – New Orleans","43,067",,"31,526",,939,,"5,725",,"2,208",,"2,518",,151
205,"Loyola U., Chicago","42,672",,"25,363",,177,,"9,131",,"2,495",,"4,140",,"1,366"
206,"Brigham Young U., Provo","42,304",,"28,453",,"1,240",,"6,766",,"4,518",,"1,178",,149
207,Saint Louis U.,"42,151",,"26,813",,465,,"8,891",,"1,314",,"4,242",,426
208,San Jose State U.,"41,662",,"31,318",,"6,462",,"1,981",,882,,751,,268
209,Howard U.,"41,038",,"33,441",,707,,"4,517",,"1,460",,913,,0
210,U. West Florida,"40,815",,"9,841",,"3,455",,"25,047",,"1,170",,"1,302",,0
211,"Texas Tech U., Health Sciences Center","40,235",,"10,384",,"15,633",,"9,355",,354,,"2,596",,"1,913"
212,Van Andel Institute,"40,040",,"11,970",,"1,338",,"22,223",,966,,"1,238",,"2,305"
213,Northern Arizona U.,"39,580",,"23,442",,"4,693",,"9,628",,369,,"1,402",,46
214,"U. California, Office of the President","39,051",,295,,"12,675",,"26,062",,0,,0,,19
215,Morehouse School of Medicine,"38,774",,"28,678",,419,,"4,940",,0,,"4,677",,60
216,Worcester Polytechnic Institute,"37,822",,"25,976",,130,,"7,691",,"2,987",,625,,413
217,"U. North Texas, Denton","37,106",,"12,621",,559,,"20,442",,"1,300",,"2,184",,0
218,"CUNY, Hunter C.","37,094",,"20,037",,"1,187",,"12,320",,344,,"2,669",,537
219,Stevens Institute of Technology,"35,765",,"28,999",,599,,"4,066",,"1,414",,643,,44
220,Missouri U. of Science and Technology,"35,756",,"18,833",,225,,"9,871",,"5,138",,558,,"1,131"
221,Kent State U.,"34,661",,"10,013",,"1,218",,"21,159",,680,,"1,394",,197
222,North Carolina Agricultural and Technical State U.,"33,759",,"21,112",,68,,"12,170",,78,,91,,240
223,"SUNY, Downstate Medical Center","33,735",,"25,941",,322,,"4,694",,647,,"1,780",,351
224,Lehigh U.,"32,941",,"21,429",,"1,525",,"8,026",,"1,136",,578,,247
225,Eastern Virginia Medical School,"32,550",,"21,459",,677,,"6,128",,"1,339",,"2,882",,65
226,Boise State U.,"32,085",,"16,953",,"2,219",,"11,511",,498,,826,,78
227,"SUNY, Upstate Medical U.","31,892",,"18,942",,"2,725",,"6,012",,"1,926",,"1,766",,521
228,Southern Methodist U.,"31,819",,"15,587",,760,,"10,595",,"3,684",,958,,235
229,Mercer U.,"31,735",,"21,120",,45,,"2,531",,"7,160",,90,,789
230,U. Texas Rio Grande Valley,"31,007",,"16,892",,"6,984",,"5,586",,281,,"1,258",,6
231,Alabama A&M U.,"30,289",i,"22,478",i,657,i,"4,703",i,171,i,0,i,"2,280"
232,Air Force Institute of Technology,"29,998",,"19,796",,35,,"9,909",,250,,8,,0
233,Illinois Institute of Technology,"29,826",,"23,821",,32,,"1,664",,"2,324",,"1,620",,365
234,Desert Research Institute,"29,422",,"18,883",,"4,640",,"3,796",,664,,462,,977
235,"U. California, Merced","29,370",,"12,206",,359,,"13,165",,786,,"1,342",,"1,512"
236,Marquette U.,"28,422",,"10,298",,112,,"11,752",,"1,059",,"1,854",,"3,347"
237,San Francisco State U.,"28,273",,"12,804",,"1,593",,"12,805",,12,,"1,035",,24
238,"U. North Carolina, Charlotte","27,815",,"20,269",,"2,674",,378,,"2,241",,"1,955",,298
239,"U. Minnesota, Duluth","27,528",,"8,055",,"5,357",,"12,857",,556,,127,,576
240,"U. Massachusetts, Dartmouth","26,824",,"6,548",,"1,864",,"17,189",,831,,205,,187
241,Baylor U.,"26,767",,"4,244",,"1,309",,"15,665",,"1,646",,"2,269",,"1,634"
242,Florida Atlantic U.,"26,750",,"15,356",,"1,682",,"3,725",,"1,106",,"2,953",,"1,928"
243,"U. Missouri, Kansas City","26,292",,"13,081",,47,,"10,542",,548,,"1,520",,554
244,U. South Dakota,"25,864",,"8,832",,"1,696",,"14,153",,0,,"1,178",,5
245,"U. Puerto Rico, Mayaguez","25,491",,"14,446",,484,,"7,641",,"2,120",,638,,162
246,Fordham U.,"25,374",,"5,979",,158,,"15,694",,0,,0,,"3,543"
247,East Carolina U.,"25,273",,"13,073",,975,,"7,162",,"2,437",,"1,592",,34
248,Catholic U. of America,"25,139",,"19,928",,138,,"4,148",,589,,336,,0
249,Texas A&M U.-Corpus Christi,"24,786",,"8,669",,"4,068",,"4,838",,822,,"2,480",,"3,909"
250,"SUNY, C. of Environmental Science and Forestry","24,504",,"8,313",,"6,954",,"7,335",,"1,087",,763,,52
251,"Columbia U., Teachers C.","24,124",,"11,635",,304,,NA,,925,,"9,788",,"1,472"
252,"U. North Carolina, Greensboro","23,965",,"17,902",,661,,"4,208",,129,,521,,544
253,Jackson State U.,"23,832",,"20,854",,0,,"2,255",,0,,676,,47
254,Creighton U.,"23,510",,"10,619",,"2,421",,"6,548",,"2,805",,593,,524
255,"U. Puerto Rico, Rio Piedras","23,491",,"15,892",,35,,"7,244",,128,,117,,75
256,"Louisiana State U., Health Sciences Center - Shreveport","23,353",,"6,478",,253,,"10,343",,"1,191",,"5,088",,0
257,Louisiana Tech U.,"23,104",,"5,455",,"2,950",,"12,690",,791,,0,,"1,218"
258,Loma Linda U.,"22,977",,"16,118",,692,,"3,808",,805,,"1,404",,150
259,U. Tulsa,"22,347",,"6,426",,424,,"3,760",,"11,401",,215,,121
260,"Rutgers, State U. New Jersey, Newark","21,492",,"13,737",,"1,798",,"4,221",,375,,"1,230",,131
261,U. Denver,"21,326",,"11,029",,185,,"5,637",,"1,547",,"2,305",,623
262,Delaware State U.,"21,320",,"15,260",,379,,"5,678",,3,,0,,0
263,Texas A&M U.-Kingsville,"21,309",,"7,475",,"4,234",,"4,005",,622,,"4,973",,0
264,Northern Illinois U.,"21,225",,"9,957",,"1,782",,"8,379",,644,,239,,224
265,U. of the Virgin Islands,"21,215",,"20,951",,264,,NA,,0,,0,,0
266,Marshall U.,"20,687",,"9,158",,"1,642",,"5,111",,"1,639",,"3,137",,0
267,"California State U., Sacramento","20,676",,"5,619",,"9,685",,"3,637",,184,,"1,331",,220
268,Idaho State U.,"20,447",,"11,926",,"2,150",,"4,441",,"1,708",,123,,99
269,Illinois State U.,"20,408",,"5,630",,"1,436",,"12,098",,58,,"1,174",,12
270,Albany Medical C.,"20,166",,"10,714",,0,,"3,974",,"4,499",,586,,393
271,"U. Alaska, Anchorage","19,883",,"11,867",,"1,927",,"4,664",,766,,639,,20
272,New Mexico Institute of Mining and Technology,"19,598",,"17,017",,777,,824,,879,,0,,101
273,Nova Southeastern U.,"19,559",,"7,381",,"1,667",,"5,572",,"3,390",,493,,"1,056"
274,Tennessee State U.,"19,520",,"12,291",,728,,"6,086",,368,,47,,0
275,"CUNY, Queens C.","19,168",,"14,275",,"1,339",,"3,322",,149,,83,,0
276,Western Michigan U. and Homer Stryker M.D. School of Medicine,"18,927",,"12,287",,400,,"3,691",,"1,213",,218,,"1,118"
277,Florida Institute of Technology,"18,860",,"9,500",,"2,047",,"4,977",,"1,550",,700,,86
278,Northeast Ohio Medical U.,"18,823",,"9,181",,114,,"7,114",,94,,"2,008",,312
279,"Southern Illinois U., Edwardsville","18,780",,"3,422",,259,,"12,264",,"2,420",,412,,3
280,"California Polytechnic State U., San Luis Obispo","18,081",,"11,276",,"2,185",,"1,949",,872,,"1,799",,0
281,New School,"17,425",,"2,428",,343,,"3,841",,465,,"7,974",,"2,374"
282,Georgia Southern U.,"17,395",,"2,695",,496,,"6,210",,"7,825",,134,,35
283,"Texas Tech U., Health Sciences Center, El Paso","17,391",,"3,064",,"11,379",,"1,777",,340,,801,,30
284,New York Medical C.,"17,311",,"10,772",,183,,272,,"3,231",,"2,181",,672
285,Duquesne U.,"17,089",,"5,809",,579,,"8,587",,526,,"1,588",,0
286,Embry-Riddle Aeronautical U.,"16,761",,"14,135",,392,,883,,"1,300",,51,,0
287,Rosalind Franklin U. of Medicine and Science,"16,760",,"8,478",,0,,"4,999",,"2,132",,"1,104",,47
288,Tuskegee U.,"16,535",,"10,388",,"2,590",,"3,553",,0,,0,,4
289,"California State U., Long Beach","16,390",,"11,176",,"1,334",,"2,446",,479,,874,,81
290,"California State U., Northridge","16,330",,"13,442",,"1,413",,"1,227",,79,,139,,30
291,Humboldt State U.,"16,143",,"4,455",,"3,946",,"3,581",,166,,"1,042",,"2,953"
292,Miami U.,"16,057",,"9,189",,"1,300",,"4,349",,706,,490,,23
293,Oakland U.,"16,001",,"6,198",,90,,"8,442",,969,,302,,0
294,Morehouse C.,"15,971",,"15,957",,14,,0,,0,,0,,0
295,Morgan State U.,"15,727",,"14,343",,808,,69,,253,,128,,126
296,Fayetteville State U.,"15,725",,"11,207",,591,,"3,672",,157,,98,,0
297,U. New Orleans,"15,719",,"6,826",,"1,324",,"5,018",,"1,059",,836,,656
298,"U. North Carolina, Wilmington","15,715",,"5,966",,"5,642",,"2,801",,690,,578,,38
299,South Dakota School of Mines and Technology,"15,396",,"10,370",,"2,178",,"1,442",,"1,067",,233,,106
300,Villanova U.,"14,903",,"4,334",,308,,"8,801",,709,,517,,234
301,Meharry Medical C.,"14,768",,"13,528",,0,,486,,15,,739,,0
302,Bowling Green State U.,"14,460",,"6,229",,"1,030",,"6,933",,21,,218,,29
303,Hampton U.,"14,225",,"14,201",,0,,24,,0,,0,,0
304,Central Michigan U.,"14,166",,"5,387",,377,,"7,712",,256,,424,,10
305,U.S. Military Academy,"13,500",,"13,500",,0,,0,,0,,0,,0
306,"U. Missouri, Saint Louis","13,460",,"4,959",,150,,"6,848",,130,,472,,901
307,Charles R. Drew U. of Medicine and Science,"13,360",,"12,089",,0,,851,,0,,420,,0
308,South Carolina State U.,"13,076",i,"4,556",i,"5,072",i,"3,439",i,0,i,0,i,9
309,Clarkson U.,"12,983",,"6,183",,"1,815",,"3,140",,"1,018",,827,,0
310,Prairie View A&M U.,"12,616",,"7,952",,"2,913",,"1,659",,57,,35,,0
311,North Carolina Central U.,"12,463",,"10,455",,236,,NA,,928,,844,,0
312,Xavier U. Louisiana,"12,084",,"10,503",,643,,790,,0,,148,,0
313,Montana Tech of U. Montana,"11,851",,"3,916",,"6,023",,"1,598",,314,,0,,0
314,"U. Texas Health Science Center, Tyler","11,799",,"3,757",,"4,340",,"1,723",,521,,"1,458",,0
315,Ball State U.,"11,763",,"3,253",,328,,"7,898",,173,,111,,0
316,Wellesley C.,"11,664",,"5,197",,308,,NA,,129,,"3,982",,"2,048"
317,Tennessee Technological U.,"11,528",,"4,076",,"3,673",,"3,603",,31,,12,,133
318,U.S. Naval Academy,"11,374",,"11,016",,0,,251,,0,,107,,0
319,"U. Hawaii, Hilo","11,287",,"9,402",,305,,"1,323",,57,,200,,0
320,Langston U.,"11,178",,"9,178",,"2,000",,NA,,0,,0,,0
321,Bryn Mawr C.,"10,867",,"2,556",,0,,"8,065",,0,,246,,0
322,"California State U., San Bernardino","10,771",,"6,348",,"1,964",,"2,201",,26,,232,,0
323,Western Washington U.,"10,743",,"4,701",,491,,"4,497",,289,,721,,44
324,Claremont Graduate U.,"10,688",i,"8,399",i,194,i,"1,315",i,76,i,703,i,1
325,Fisk U.,"10,635",,"9,544",,120,,624,,0,,347,,0
326,"U. Nebraska, Omaha","10,459",,"7,180",,461,,"2,727",,11,,76,,4
327,Rowan U.,"10,212",,"5,252",,"1,149",,"2,155",,872,,784,,0
328,C. Charleston,"10,189",,"6,269",,229,,"2,479",,414,,797,,1
329,"CUNY, Graduate Center","10,098",,"3,318",,"1,714",,"2,252",,0,,"2,106",,708
330,Rhode Island C.,"9,943",,"3,928",,"5,771",,46,,0,,198,,0
331,"CUNY, John Jay C. of Criminal Justice","9,688",,"4,625",,156,,"2,123",,"1,900",,362,,522
332,"CUNY, Brooklyn C.","9,602",,"5,995",,73,,"2,444",,96,,82,,912
333,Dillard U.,"9,566",,"7,605",,171,,"1,095",,0,,494,,201
334,DePaul U.,"9,558",,"4,623",,15,,"2,135",,7,,"2,740",,38
335,Tarleton State U.,"9,404",,"4,495",,"2,778",,"1,930",,62,,28,,111
336,St. Edward's U.,"9,325",,"7,500",,120,,485,,100,,100,,"1,020"
337,Western Kentucky U.,"8,926",,"4,018",,115,,"4,182",,381,,217,,13
338,Azusa Pacific U.,"8,898",,606,,0,,"8,104",,0,,30,,158
339,"U. Arkansas, Pine Bluff","8,873",,"4,233",,"2,120",,"2,475",,0,,45,,0
340,"California State U., Fresno","8,586",,"3,539",,"2,069",,"2,390",,184,,320,,84
341,Clark Atlanta U.,"8,513",,"6,048",,51,,"2,255",,52,,107,,0
342,Salisbury U.,"8,473",,"2,414",,"2,761",,"3,196",,8,,94,,0
343,"U. Washington, Bothell","8,406",,"2,863",,4,,"1,596",,88,,"3,751",,104
344,Kennesaw State U.,"8,279",,"1,925",,112,,"5,798",,281,,141,,22
345,"U. Maryland, Eastern Shore","8,250",,"7,853",,79,,NA,,0,,20,,298
346,Alcorn State U.,"8,204",,"6,387",,18,,"1,462",,299,,38,,0
347,"Arkansas State U., Jonesboro","8,169",,"4,826",,"2,359",,888,,93,,1,,2
348,Virginia State U.,"8,147",,"5,204",,595,,"2,327",,19,,0,,2
349,Ponce Health Sciences U.,"7,992",,"6,951",,254,,NA,,0,,8,,779
350,East Tennessee State U.,"7,982",,"5,658",,203,,279,,781,,"1,020",,41
351,"U. Michigan, Dearborn","7,904",,"2,172",,2,,"3,739",,"1,614",,309,,68
352,"Purdue U., Calumet","7,812",,"3,712",,807,,"2,634",,516,,143,,0
353,Wesleyan U.,"7,740",,"3,493",,496,,"3,238",,22,,387,,104
354,Midwestern U.,"7,732",,"1,060",,26,,"6,354",,16,,276,,0
355,"U. Arkansas, Little Rock","7,604",,"4,934",,533,,"1,331",,180,,486,,140
356,Norfolk State U.,"7,593",,"7,230",,7,,57,,0,,0,,299
357,U. New England,"7,566",,"5,298",,266,,"1,196",,234,,556,,16
358,Loyola Marymount U.,"7,504",,707,,110,,"5,142",,0,,"1,545",,0
359,U. Guam,"7,402",,"6,621",,156,,560,,40,,25,,0
360,Florida Gulf Coast U.,"7,335",,"4,442",,"1,418",,234,,31,,"1,208",,2
361,Seton Hall U.,"7,244",,"1,975",,"2,263",,0,,"1,001",,"2,005",,0
362,Kentucky State U.,"7,178",,"5,146",,"1,878",,28,,88,,27,,11
363,"U. South Florida, Saint Petersburg","7,116",,"3,019",,67,,"3,719",,166,,0,,145
364,U. Central del Caribe,"7,090",,"6,290",,52,,748,,0,,0,,0
365,Clark U.,"6,970",,"2,002",,479,,"3,345",,349,,714,,81
366,Gallaudet U.,"6,947",,"2,135",,0,,"1,831",,0,,338,,"2,643"
367,Western U. of Health Sciences,"6,895",,"2,391",,750,,143,,"1,036",,"2,408",,167
368,"Indiana U.-Purdue U., Fort Wayne","6,872",,"1,541",,426,,"3,616",,168,,327,,794
369,U. Colorado Colorado Springs,"6,812",,"3,976",,607,,888,,"1,027",,314,,0
370,Grand Valley State U.,"6,764",,"1,479",,79,,"3,231",,13,,"1,574",,388
371,"California State U., San Marcos","6,634",,"5,273",,641,,285,,7,,428,,0
372,Texas Christian U.,"6,589",,"3,617",,715,,200,,"1,949",,NA,,108
373,Chapman U.,"6,554",,"3,357",,91,,"1,706",,121,,818,,461
374,National Defense U.,"6,447",,"6,447",,0,,0,,0,,0,,0
375,Carleton C.,"6,385",,"3,508",,143,,"1,441",,0,,713,,580
376,Montclair State U.,"6,320",,"2,771",,"1,481",,"1,054",,135,,479,,400
377,U. Central Oklahoma,"6,275",,"1,409",,"1,530",,"2,607",,531,,198,,0
378,Fairfield U.,"6,174",,435,,55,,"5,220",,0,,0,,464
379,Middle Tennessee State U.,"6,164",,"3,535",,375,,"1,828",,116,,310,,0
380,Claremont McKenna C.,"6,094",,644,,39,,"4,599",,0,,812,,0
381,West Chester U. Pennsylvania,"5,895",,454,,29,,"5,154",,125,,88,,45
382,"Lincoln U., Jefferson City","5,826",,"4,953",,873,,NA,,0,,0,,0
383,U. Baltimore,"5,798",,"3,769",,"1,350",,NA,,23,,582,,74
384,"California State U., Fullerton","5,755",,"3,815",,404,,892,,212,,432,,0
385,Williams C.,"5,747",,"1,614",,0,,"1,082",,0,,0,,"3,051"
386,Edward Via C. of Osteopathic Medicine,"5,692",,88,,0,,"5,326",,67,,211,,0
387,"California State U., Monterey Bay","5,680",,"3,654",,"1,153",,748,,64,,61,,0
388,"U. Tennessee, Chattanooga","5,600",,"1,092",,512,,"3,296",,59,,265,,376
389,"Pennsylvania State U., Behrend","5,382",,"2,445",,925,,"1,095",,730,,187,,0
390,"California State U., Los Angeles","5,371",,"3,804",,905,,270,,0,,392,,0
391,Pace U.,"5,359",,"2,845",,0,,"2,031",,20,,457,,6
392,"CUNY, Lehman C.","5,347",,"3,625",,0,,"1,637",,44,,23,,18
393,"California State Polytechnic U., Pomona","5,254",,"2,199",,"1,523",,924,,475,,133,,0
394,West Virginia State U.,"5,224",,"4,126",,886,,179,,30,,3,,0
395,"U. Massachusetts, central office","5,219",,"1,124",,"2,870",,544,,180,,476,,25
396,U. Metropolitana,"5,183",,"4,630",,0,,553,,0,,0,,0
397,U. North Florida,"5,141",,"1,356",,777,,"2,272",,468,,268,,0
398,Fort Valley State U.,"5,138",,"4,844",,0,,294,,0,,0,,0
399,"U. Oklahoma, Tulsa","4,962",,"1,104",,383,,"1,913",,96,,"1,120",,346
400,U. Southern Maine,"4,773",,"2,299",,"1,799",,274,,69,,319,,13
401,Stephen F. Austin State U.,"4,749",,"1,808",,"1,415",,"1,040",,89,,281,,116
402,U. San Diego,"4,734",,"2,152",,841,,"1,423",,0,,216,,102
403,"Southern U. and A&M C., Agricultural Research and Extension Center","4,704",,"2,415",,"2,227",,62,,0,,0,,0
404,Texas Southern U.,"4,495",,"3,269",,481,,414,,111,,220,,0
405,Smith C.,"4,466",,"2,634",,37,,802,,35,,958,,0
406,Bucknell U.,"4,377",i,"1,619",i,281,i,"1,525",i,452,i,389,i,111
407,Harvey Mudd C.,"4,332",,"2,320",,0,,"1,625",,26,,204,,157
408,"Southern U. and A&M C., Baton Rouge","4,322",,"2,778",,113,,"1,319",,112,,0,,0
409,Amherst C.,"4,260",,"1,207",,0,,"2,233",,0,,154,,666
410,"Rutgers, State U. New Jersey, Camden","4,250",,"2,653",,429,,563,,16,,589,,0
411,Grinnell C.,"4,183",,340,,11,,"3,147",,0,,369,,316
412,"SUNY, C. of Optometry","4,169",,"2,487",,0,,734,,895,,53,,0
413,"U. North Carolina, general administration","4,137",,174,,"3,963",,0,,0,,0,,0
414,New York Institute of Technology,"4,114",,"1,607",,680,,"1,434",,90,,303,,0
415,West Texas A&M U.,"4,048",,"1,735",,"1,727",,286,,229,,68,,3
416,"Minnesota State U., Mankato","4,034",,"1,260",,394,,"1,547",,0,,12,,821
417,U. Northern Colorado,"4,028",,"1,962",,103,,"1,913",,18,,32,,0
418,Oregon Institute of Technology,"4,027",,"1,268",,"2,305",,0,,212,,242,,0
419,Mount Holyoke C.,"3,999",,"2,848",,26,,973,,0,,152,,0
420,Alfred U.,"3,975",,"1,558",,732,,797,,888,,0,,0
421,"U. Washington, Tacoma","3,957",,"2,682",,337,,549,,21,,265,,103
422,Milwaukee School of Engineering,"3,930",,"1,164",,0,,0,,"2,728",,38,,0
423,U. New Haven,"3,822",,"2,157",,"1,004",,NA,,0,,661,,0
424,Eastern Michigan U.,"3,815",,"1,627",,32,,"1,930",,113,,98,,15
425,Franklin and Marshall C.,"3,772",,955,,210,,917,,218,,518,,954
426,Texas A&M International U.,"3,742",,924,,"1,238",,555,,72,,941,,12
427,Pomona C.,"3,691",,"1,579",,1,,"1,381",,0,,730,,0
428,U. Detroit Mercy,"3,654",,"2,565",,0,,959,,107,,23,,0
429,U. Northern Iowa,"3,632",,"2,297",,295,,831,,91,,118,,0
430,Mills C.,"3,540",,873,,9,,212,,0,,"2,446",,0
431,Barnard C.,"3,534",,"3,082",,0,,252,,3,,197,,0
432,"CUNY, C. Staten Island","3,511",,"1,700",,443,,826,,12,,530,,0
433,St. Cloud State U.,"3,497",,643,,343,,"1,298",,464,,749,,0
434,U. of the District of Columbia,"3,469",,"2,451",,0,,889,,0,,0,,129
435,"Touro U., Vallejo","3,466",,"1,199",,37,,"2,063",,0,,167,,0
436,Kettering U.,"3,463",,"1,279",,37,,961,,764,,346,,76
437,U. Central Arkansas,"3,453",,"1,138",,861,,"1,365",,2,,84,,3
438,Roseman U. of Health Sciences,"3,433",,0,,0,,"3,432",,1,,0,,0
439,Eastern Washington U.,"3,368",,"1,287",,"1,146",,NA,,855,,80,,0
440,"U. North Carolina, Asheville","3,348",,"2,312",,299,,304,,51,,381,,1
441,U. of the Sciences Philadelphia,"3,308",,"1,153",,18,,"1,090",,46,,971,,30
442,James Madison U.,"3,303",,"2,203",,100,,100,,NA,,NA,,900
443,Lewis and Clark C.,"3,267",,636,,0,,"1,370",,0,,"1,261",,0
444,Sam Houston State U.,"3,266",,"1,830",,126,,"1,105",,68,,88,,49
445,Southern Connecticut State U.,"3,243",,"1,324",,792,,694,,46,,273,,114
446,Jacksonville State U.,"3,231",,"3,081",,0,,110,,40,,0,,0
447,Colgate U.,"3,219",,"1,217",,0,,"1,647",,0,,355,,0
448,Reed C.,"3,213",,"1,690",,0,,"1,428",,0,,95,,0
449,Swarthmore C.,"3,211",,"1,458",,7,,"1,526",,7,,212,,1
449,U. Wisconsin-La Crosse,"3,211",,"1,250",,515,,526,,575,,46,,299
451,Naval War C.,"3,210",,"3,210",,0,,0,,0,,0,,0
452,Bowdoin C.,"3,204",,"2,457",,19,,482,,1,,245,,0
453,Pepperdine U.,"3,178",,"1,233",,17,,"1,379",,138,,411,,0
454,"Memorial Sloan Kettering Cancer Center, Louis V. Gerstner Jr. Graduate S. of Biomedical Sciences","3,177",,643,,0,,"2,534",,0,,0,,0
455,"California State U., Bakersfield","3,161",,"1,689",,84,,996,,177,,0,,215
456,Appalachian State U.,"3,146",,"1,896",,207,,483,,240,,261,,59
457,Erikson Institute,"3,117",,"1,719",,733,,209,,0,,456,,0
458,Missouri State U.,"3,069",,"2,675",,136,,0,,236,,22,,0
459,U. Richmond,"3,047",,"1,924",,0,,915,,0,,208,,0
460,Valparaiso U.,"3,041",,"1,595",,109,,333,,10,,816,,178
461,Texas Woman's U.,"3,014",,573,,776,,747,,42,,876,,0
462,U. of the Pacific,"3,013",,"1,991",,166,,NA,,214,,493,,149
463,"CUNY, Baruch C.","2,998",,"1,325",,284,,991,,304,,60,,34
464,U. Wisconsin-Stevens Point,"2,973",,957,,817,,946,,61,,130,,62
465,Texas A&M U.-Commerce,"2,943",,876,,164,,"1,082",,10,,175,,636
466,A. T. Still U.,"2,873",,"2,041",,50,,503,,0,,279,,0
467,"U. Texas, Tyler","2,844",,"1,936",,340,,246,,197,,0,,125
468,Black Hills State U.,"2,833",,"2,056",,146,,618,,12,,1,,0
469,Hope C.,"2,811",,"1,251",,0,,290,,0,,"1,270",,0
470,"California State U., Dominguez Hills","2,790",,"2,215",,29,,537,,0,,9,,0
471,Lamar U.,"2,783",,611,,"1,116",,607,,109,,304,,36
472,Central Washington U.,"2,751",,"1,580",,483,,480,,37,,48,,123
473,"Toyota Technological Institute, Chicago","2,710",,"1,410",,0,,"1,143",,157,,0,,0
474,Hamilton C.,"2,662",,442,,0,,989,,1,,"1,175",,55
475,Elon U.,"2,606",,423,,36,,"2,104",,0,,43,,0
476,"Pennsylvania State U., Harrisburg","2,558",,270,,579,,"1,110",,89,,510,,0
477,MGH Institute of Health Professions,"2,548",,"2,228",,0,,20,,0,,300,,0
478,U. del Turabo,"2,518",,437,,0,,"2,081",,0,,0,,0
479,Pacific U.,"2,508",,"1,419",,234,,308,,149,,398,,0
480,Tougaloo C.,"2,473",,"2,473",,0,,0,,0,,0,,0
481,Willamette U.,"2,459",,"1,090",,0,,974,,0,,395,,0
482,Philadelphia C. of Osteopathic Medicine,"2,458",,150,,12,,"2,122",,3,,171,,0
483,Roger Williams U.,"2,441",,"1,736",,188,,457,,22,,38,,0
483,"U. Louisiana, Monroe","2,441",,"2,016",,77,,158,,1,,165,,24
485,Hofstra U.,"2,440",,"2,149",,0,,167,,0,,124,,0
486,National U.,"2,400",,"2,012",,36,,352,,0,,0,,0
487,Morehead State U.,"2,399",,"1,797",,41,,551,,0,,3,,7
488,Trinity U.,"2,383",,973,,0,,796,,81,,445,,88
489,Alabama State U.,"2,372",,"2,372",,0,,0,,0,,0,,0
490,Hawaii Pacific U.,"2,371",,"2,071",,0,,189,,90,,21,,0
491,U. San Francisco,"2,365",,280,,67,,"1,772",,15,,231,,0
492,"California State U., Chico","2,363",,933,,568,,648,,115,,76,,23
493,Youngstown State U.,"2,342",,"1,083",,848,,363,,48,,0,,0
494,"St. John's U., Manhattan","2,307",,940,,0,,985,,281,,50,,51
495,Towson U.,"2,303",,"1,616",,49,,141,,90,,321,,86
496,Wiley C.,"2,301",i,"2,060",i,231,i,0,i,0,i,10,i,0
497,Savannah State U.,"2,267",,"2,251",,0,,0,,0,,16,,0
498,"SUNY, Buffalo State","2,221",,859,,315,,442,,0,,590,,15
499,Commonwealth Medical C.,"2,208",,396,,0,,"1,766",,0,,1,,45
500,California Maritime Academy,"2,205",,71,,70,,64,,"2,000",,0,,0
501,"Oklahoma State U., Center for Health Sciences","2,182",,748,,84,,"1,255",,80,,15,,0
502,Haverford C.,"2,173",,972,,0,,914,,0,,287,,0
503,Dakota State U.,"2,171",,"1,593",,85,,366,,0,,113,,14
503,Saint Joseph's U.,"2,171",,476,,619,,740,,13,,320,,3
505,Pittsburg State U.,"2,162",,270,,623,,NA,,"1,107",,162,,0
506,"Union C., Schenectady","2,150",,"1,680",,0,,410,,2,,58,,0
507,Southeastern Louisiana U.,"2,128",,975,,326,,652,,4,,111,,60
508,Murray State U.,"2,124",,564,,64,,"1,267",,164,,65,,0
509,Bradley U.,"2,122",,969,,26,,330,,778,,0,,19
510,Babson C.,"2,108",,0,,0,,895,,127,,581,,505
511,Johnson C. Smith U.,"2,094",,"1,279",,74,,0,,0,,741,,0
512,Santa Clara U.,"2,056",,"1,634",,4,,NA,,131,,287,,0
513,Seattle U.,"2,050",,820,,278,,475,,9,,167,,301
514,"CUNY, Advanced Science Research Center","2,030",,"1,366",,0,,554,,91,,19,,0
515,Sul Ross State U.,"2,015",,272,,278,,"1,002",,17,,446,,0
516,Occidental C.,"2,008",,"1,260",,144,,NA,,239,,365,,0
517,Winthrop U.,"1,993",,"1,178",,37,,733,,0,,45,,0
518,Connecticut C.,"1,972",,817,,0,,"1,056",,0,,99,,0
519,Spelman C.,"1,929",,"1,291",,0,,476,,162,,0,,0
520,Bowie State U.,"1,927",,"1,927",,0,,0,,0,,0,,0
521,William Paterson U.,"1,919",,564,,42,,"1,246",,0,,67,,0
522,Lawrence Technological U.,"1,907",,658,,240,,59,,569,,381,,0
523,Colby C.,"1,903",,"1,137",,2,,489,,0,,0,,275
524,Maine Maritime Academy,"1,902",,"1,207",,0,,605,,0,,0,,90
525,Elizabeth City State U.,"1,889",,"1,827",,41,,NA,,0,,0,,21
526,Furman U.,"1,869",,"1,068",,16,,546,,0,,181,,58
527,"U. Nebraska, Kearney","1,864",,891,,13,,901,,3,,56,,0
528,Northern Kentucky U.,"1,846",,"1,133",,5,,609,,3,,96,,0
529,"U. South Florida, Sarasota-Manatee","1,827",,31,,0,,"1,601",,7,,56,,132
530,Austin Peay State U.,"1,823",,325,,969,,449,,0,,73,,7
531,Middlebury C.,"1,822",,"1,736",,0,,9,,1,,76,,0
532,Keck Graduate Institute,"1,814",i,949,i,0,i,573,i,118,i,29,i,145
533,Calvin C.,"1,809",,795,,1,,0,,40,,861,,112
534,"U. Alaska, Southeast","1,808",,"1,502",,47,,188,,71,,0,,0
535,U. Hartford,"1,803",,"1,172",,3,,491,,4,,133,,0
536,Albany C. of Pharmacy and Health Sciences,"1,789",,380,,22,,423,,854,,95,,15
537,U. Houston-Downtown,"1,784",,"1,165",,27,,442,,0,,150,,0
538,Bates C.,"1,781",,"1,156",,40,,383,,43,,122,,37
539,Coastal Carolina U.,"1,779",,"1,052",,727,,0,,0,,0,,0
540,Colorado C.,"1,775",,358,,0,,"1,009",,0,,408,,0
541,Claflin U.,"1,772",,"1,743",,0,,0,,1,,28,,0
542,Indiana State U.,"1,763",,"1,189",,122,,146,,226,,80,,0
543,Franklin W. Olin C. of Engineering,"1,762",,782,,16,,903,,0,,61,,0
544,"SUNY, Geneseo","1,750",,930,,13,,786,,0,,9,,12
545,Siena C.,"1,721",,"1,313",,28,,279,,0,,101,,0
546,"U. Illinois, Springfield","1,683",,725,,47,,783,,0,,128,,0
547,"SUNY, Oswego","1,662",,754,,7,,868,,8,,10,,15
548,"CUNY, system office","1,655",,832,,0,,587,,0,,131,,105
549,Benedict C.,"1,653",,"1,621",,0,,0,,0,,32,,0
550,Mercyhurst U.,"1,647",,612,,355,,460,,95,,125,,0
551,Central State U.,"1,643",,"1,546",,97,,0,,0,,0,,0
552,Salus U.,"1,641",,"1,571",,22,,48,,0,,0,,0
553,Fuller Theological Seminary,"1,634",,0,,0,,9,,0,,"1,624",,1
554,Northwestern State U. Louisiana,"1,628",,490,,"1,001",,137,,0,,0,,0
555,Saint Michael's C.,"1,624",,"1,399",,0,,225,,0,,0,,0
556,Rider U.,"1,617",,179,,32,,"1,391",,4,,11,,0
557,St. Olaf C.,"1,605",,849,,10,,634,,0,,112,,0
558,U. Wisconsin-Green Bay,"1,599",,919,,27,,442,,42,,106,,63
559,"Trinity C., Hartford","1,598",,893,,0,,370,,1,,334,,0
560,"CUNY, Medgar Evers C.","1,587",,"1,150",,2,,434,,0,,1,,0
561,U. Houston-Clear Lake,"1,578",,756,,481,,200,,26,,115,,0
562,Grambling State U.,"1,570",,974,,464,,90,,0,,37,,5
563,Macalester C.,"1,562",,771,,155,,566,,0,,70,,0
564,"U. Texas, Permian Basin","1,561",,510,,384,,378,,39,,250,,0
565,Drake U.,"1,558",,"1,116",,57,,161,,191,,33,,0
566,Lafayette C.,"1,553",,997,,6,,501,,49,,0,,0
567,Davidson C.,"1,521",,813,,0,,427,,107,,164,,10
568,"Palmer C. of Chiropractic, Davenport","1,510",,"1,485",,0,,25,,0,,0,,0
569,Niagara U.,"1,505",,172,,406,,675,,0,,251,,1
570,Albany State U.,"1,496",,"1,137",,112,,0,,247,,0,,0
571,Vassar C.,"1,495",,"1,495",,0,,0,,0,,NA,,NA
572,Marshall B. Ketchum U.,"1,491",,375,,0,,739,,377,,0,,0
573,Eastern Kentucky U.,"1,486",,"1,029",,49,,378,,2,,28,,0
574,"Indiana U., South Bend","1,474",,344,,0,,774,,3,,351,,2
575,U. Wisconsin-Oshkosh,"1,470",,"1,120",,0,,0,,0,,0,,350
576,"Saint John's U., Collegeville","1,459",,0,,0,,"1,459",,0,,0,,0
577,"U. South Carolina, Aiken","1,445",,"1,155",,0,,275,,0,,15,,0
578,Western Illinois U.,"1,426",,729,,268,,272,,68,,0,,89
579,Long Island U.,"1,420",,852,,65,,84,,91,,165,,163
580,"U. Puerto Rico, Cayey","1,415",,"1,105",,0,,310,,0,,0,,0
581,Des Moines U.,"1,401",,386,,3,,827,,9,,176,,0
582,"California State U., Channel Islands","1,383",,249,,600,,527,,2,,5,,0
583,Suffolk U.,"1,375",i,253,i,0,i,710,i,0,i,412,i,0
584,"Purdue U., North Central","1,366",,536,,213,,587,,0,,30,,0
585,Alaska Pacific U.,"1,358",,671,,128,,0,,559,,0,,0
586,Winston-Salem State U.,"1,356",,"1,356",,0,,NA,,0,,0,,0
587,Plymouth State U.,"1,340",,925,,46,,102,,1,,149,,117
588,"SUNY, C. Brockport","1,335",,639,,109,,459,,0,,67,,61
589,Dickinson C.,"1,332",,397,,80,,334,,0,,511,,10
590,Skidmore C.,"1,327",,747,,0,,452,,0,,128,,0
591,Central Connecticut State U.,"1,322",,143,,788,,372,,10,,9,,0
592,C. New Jersey,"1,306",,"1,215",,0,,52,,27,,6,,6
593,C. of Saint Benedict,"1,305",,38,,0,,"1,267",,0,,0,,0
593,Oberlin C.,"1,305",,962,,0,,298,,0,,45,,0
593,Western Carolina U.,"1,305",,873,,15,,210,,19,,188,,0
596,Western New England U.,"1,291",,581,,0,,326,,334,,48,,2
597,Heidelberg U.,"1,286",,294,,620,,96,,103,,173,,0
598,U. of St. Thomas (MN),"1,266",,195,,265,,428,,104,,225,,49
599,McNeese State U.,"1,265",,130,,45,,"1,033",,0,,57,,0
600,"Wheaton C., Wheaton","1,259",,214,,0,,513,,0,,532,,0
601,La Sierra U.,"1,255",,127,,0,,891,,0,,237,,0
602,Norwich U.,"1,249",,461,,60,,678,,13,,37,,0
603,"California State U., Stanislaus","1,248",,221,,246,,0,,665,,84,,32
604,Indiana U. Pennsylvania,"1,241",,373,,96,,487,,0,,285,,0
605,U. Wisconsin-Eau Claire,"1,238",,661,,348,,79,,46,,104,,0
606,Northeastern Illinois U.,"1,231",,"1,231",,0,,0,,0,,0,,0
607,Canisius C.,"1,219",,"1,113",,106,,0,,0,,0,,0
608,Eastern Connecticut State U.,"1,209",,27,,0,,"1,182",,0,,0,,0
609,U. del Este,"1,207",,564,,0,,643,,0,,0,,0
610,Providence C.,"1,196",,981,,0,,189,,0,,26,,0
611,Keene State C.,"1,193",,"1,120",,0,,73,,0,,0,,0
612,Saginaw Valley State U.,"1,190",,237,,40,,694,,0,,219,,0
613,Augsburg C.,"1,189",,671,,0,,424,,0,,0,,94
614,"SUNY, Farmingdale State C.","1,175",i,570,i,0,i,605,i,0,i,0,i,0
615,Christopher Newport U.,"1,172",,858,,80,,5,,149,,80,,0
616,C. Wooster,"1,169",,368,,0,,662,,0,,139,,0
617,Salish Kootenai C.,"1,142",,"1,142",,0,,0,,0,,0,,0
618,La Salle U.,"1,141",i,89,i,0,i,"1,052",i,0,i,0,i,0
619,Augustana U.,"1,126",,953,,2,,159,,8,,4,,0
620,Northern Michigan U.,"1,118",,288,,7,,778,,9,,31,,5
621,Emerson C.,"1,114",,366,,19,,121,,76,,528,,4
622,New Mexico Highlands U.,"1,111",,"1,086",,6,,0,,0,,0,,19
623,U. Wisconsin-River Falls,"1,104",,378,,209,,69,,51,,0,,397
624,New C. Florida,"1,103",,183,,0,,345,,562,,13,,0
625,U. Bridgeport,"1,094",,214,,60,,800,,0,,20,,0
626,Gettysburg C.,"1,080",,404,,0,,154,,72,,290,,160
627,Massachusetts C. of Pharmacy and Health Sciences,"1,073",,303,,0,,751,,11,,1,,7
628,U. Puget Sound,"1,072",,769,,0,,193,,5,,105,,0
629,Rhode Island School of Design,"1,071",i,274,i,45,i,459,i,239,i,54,i,0
630,U. Houston system administration,"1,070",,0,,962,,108,,0,,0,,0
631,Angelo State U.,"1,066",,156,,705,,50,,0,,125,,30
632,Eastern Illinois U.,"1,056",,764,,89,,147,,7,,49,,0
633,National C. of Natural Medicine,"1,046",,437,,0,,228,,189,,16,,176
634,Albion C.,"1,043",,248,,0,,795,,0,,0,,0
635,Lake Superior State U.,"1,039",,272,,13,,255,,222,,0,,277
636,U. Wisconsin-Platteville,"1,034",i,347,i,255,i,169,i,228,i,27,i,8
637,"U. Michigan, Flint","1,033",,326,,52,,609,,22,,12,,12
638,"U. Minnesota, Morris","1,029",,428,,21,,564,,8,,8,,0
639,Quinnipiac U.,"1,022",i,522,i,51,i,262,i,42,i,128,i,17
640,"SUNY, C. Plattsburgh","1,020",,545,,181,,294,,0,,0,,0
641,Seattle Pacific U.,"1,016",,850,,0,,98,,34,,22,,12
642,Allegheny C.,"1,014",,355,,27,,308,,0,,324,,0
643,Biola U.,"1,000",i,564,i,15,i,249,i,66,i,81,i,25
643,Hobart and William Smith Colleges,"1,000",,473,,310,,128,,4,,85,,0
643,Hult International Business School,"1,000",i,503,i,22,i,305,i,34,i,97,i,39
646,Denison U.,991,i,287,i,280,i,225,i,0,i,121,i,78
647,New England C. of Optometry,980,,618,,0,,86,,264,,12,,0
648,Oakwood U.,966,,677,,0,,185,,0,,104,,0
649,Gonzaga U.,959,,414,,18,,24,,18,,485,,0
650,"Louisiana State U., Shreveport",955,,669,,23,,159,,42,,50,,12
651,Andrews U.,943,,55,,0,,608,,0,,280,,0
652,LeTourneau U.,939,,262,,0,,350,,102,,225,,0
653,Chicago State U.,910,,910,,0,,0,,0,,0,,0
654,Kean U.,908,,323,,172,,385,,28,,0,,0
655,Monmouth U.,900,,173,,123,,68,,21,,515,,0
656,"SUNY, C. Cortland",868,,590,,0,,202,,0,,24,,52
657,Manhattan C.,866,,386,,312,,78,,55,,0,,35
657,San Juan Bautista School of Medicine,866,,753,,14,,59,,0,,40,,0
659,Northwest Nazarene U.,861,,737,,0,,34,,0,,90,,0
660,Stonehill C.,859,,496,,0,,363,,0,,0,,0
661,"U. Puerto Rico, Humacao",858,,688,,0,,170,,0,,0,,0
662,Palo Alto U.,849,,530,,177,,130,,0,,12,,0
663,"California State U., East Bay",837,,479,,78,,0,,54,,226,,0
664,U. of Mary Washington,835,,379,,45,,322,,15,,74,,0
665,Bastyr U.,832,,0,,0,,29,,22,,781,,0
666,Millsaps C.,823,,400,,0,,36,,1,,386,,0
667,Midwestern State U.,822,,23,,52,,277,,0,,467,,3
668,Stockton U.,807,,221,,538,,30,,0,,18,,0
669,"U. South Carolina, Beaufort",804,,125,,20,,255,,0,,404,,0
670,Weber State U.,796,,359,,26,,206,,68,,0,,137
671,"St. Mary's U., San Antonio",794,,0,,0,,781,,0,,0,,13
672,American Samoa Community C.,793,,793,,0,,0,,0,,0,,0
673,Kenyon C.,783,,568,,0,,147,,0,,31,,37
674,"U. California, Hastings C. of Law",780,,152,,22,,26,,0,,580,,0
675,Regis U.,778,,365,,0,,55,,58,,300,,0
676,"SUNY, C. Old Westbury",776,,107,,2,,427,,228,,12,,0
676,Wheeling Jesuit U.,776,,276,,14,,0,,0,,486,,0
678,Doane U.,765,,629,,0,,133,,0,,3,,0
679,"Pennsylvania State U., Altoona",761,,260,,0,,387,,114,,0,,0
680,U. Tampa,760,,184,,102,,182,,30,,262,,0
681,Eckerd C.,753,,356,,98,,18,,175,,106,,0
681,Susquehanna U.,753,,224,,0,,69,,0,,460,,0
683,Luther C.,751,,129,,16,,271,,0,,333,,2
684,"CUNY, New York City C. of Technology",742,,456,,0,,202,,81,,3,,0
685,Ursinus C.,737,,429,,3,,0,,8,,254,,43
686,Arcadia U.,732,,470,,30,,0,,36,,196,,0
687,St. Bonaventure U.,731,,159,,4,,20,,23,,14,,511
688,"CUNY, York C.",728,,542,,0,,170,,6,,10,,0
688,U. of the Incarnate Word,728,,416,,0,,258,,0,,49,,5
690,"U. Minnesota, Rochester",724,,37,,0,,680,,0,,0,,7
691,"Indiana U., New Albany",719,,1,,0,,709,,0,,9,,0
692,Ithaca C.,711,,489,,34,,135,,0,,53,,0
693,Dominican U. California,708,,708,,0,,0,,0,,0,,0
694,"Loyola U., New Orleans",703,,235,,114,,115,,1,,238,,NA
695,Bloomsburg U. Pennsylvania,701,,105,,51,,389,,120,,36,,0
695,Sewanee: U. of the South,701,,61,,18,,384,,0,,234,,4
695,U. Portland,701,,30,,120,,126,,131,,294,,0
698,U. Wisconsin-Whitewater,698,,269,,141,,0,,61,,227,,0
699,International Technological U.,696,,0,,0,,696,,0,,0,,0
700,Sonoma State U.,693,,630,,15,,48,,0,,0,,0
701,Messiah C.,690,,9,,119,,77,,62,,423,,0
702,Radford U.,685,,330,,59,,255,,26,,15,,0
703,Millersville U. Pennsylvania,678,,499,,16,,151,,0,,12,,0
704,Nicholls State U.,665,,185,,252,,57,,53,,118,,0
705,Barry U.,660,,332,,3,,4,,296,,25,,0
706,Oglala Lakota C.,659,,419,,0,,0,,0,,0,,240
707,Fort Hays State U.,657,,446,,130,,81,,0,,0,,0
707,Fort Lewis C.,657,,568,,18,,19,,31,,21,,0
707,Valdosta State U.,657,,248,,0,,244,,137,,28,,0
710,Northwest Indian C.,653,,602,,0,,45,,0,,6,,0
711,Southwestern U.,650,,2,,0,,209,,0,,439,,0
712,St. Catherine U.,647,,171,,15,,76,,80,,305,,0
713,U. Western States,644,,341,,0,,277,,26,,0,,0
714,C. of the Holy Cross,643,,596,,0,,0,,0,,47,,0
715,Mississippi Valley State U.,642,,633,,0,,9,,0,,0,,0
716,St. Mary's C. Maryland,638,,354,,110,,106,,0,,68,,0
717,"U. Puerto Rico, Ponce",629,,525,,0,,104,,0,,0,,0
718,Kalamazoo C.,619,,204,,0,,310,,0,,105,,0
719,Hendrix C.,616,,520,,6,,90,,0,,0,,0
720,U. West Georgia,614,,421,,3,,76,,81,,33,,0
721,Ferris State U.,607,,8,,0,,426,,139,,34,,0
722,"U. Tennessee, Martin",598,,66,,7,,461,,22,,11,,31
723,Rose-Hulman Institute of Technology,596,,444,,3,,40,,73,,36,,0
724,"Concordia U., Wisconsin",594,,359,,24,,52,,0,,159,,0
725,Polytechnic U. Puerto Rico,591,,499,,0,,92,,0,,0,,0
726,Gustavus Adolphus C.,585,,231,,51,,145,,0,,60,,98
727,Northeastern State U.,568,,281,,147,,41,,98,,0,,1
727,Southern Oregon U.,568,,213,,243,,4,,17,,86,,5
727,U.S. Coast Guard Academy,568,,510,,0,,13,,0,,45,,0
730,Touro C.,561,,92,,0,,408,,56,,5,,0
731,Cornell C.,558,,311,,2,,38,,0,,138,,69
732,Shippensburg U. Pennsylvania,557,,87,,55,,8,,0,,407,,0
733,Earlham C.,554,,165,,0,,143,,4,,30,,212
734,Roanoke C.,550,,69,,0,,444,,0,,37,,0
734,Virginia Military Institute,550,,46,,35,,367,,102,,0,,0
736,Saint Mary's U. Minnesota,549,,381,,58,,8,,0,,102,,0
737,"Montana State U., Havre",548,,2,,446,,48,,52,,0,,0
738,Whitman C.,546,,430,,0,,116,,0,,0,,0
739,Centre C.,537,,32,,0,,273,,0,,201,,31
740,Citadel Military C. South Carolina,535,,185,,28,,226,,11,,54,,31
741,Muhlenberg C.,532,,236,,1,,265,,22,,8,,0
742,"Augustana C., Rock Island",527,,246,,0,,224,,2,,54,,1
743,Truman State U.,526,,214,,0,,284,,10,,0,,18
744,Pitzer C.,525,,146,,0,,344,,0,,5,,30
745,Whitworth U.,523,,17,,0,,221,,18,,77,,190
746,Cheyney U. Pennsylvania,519,,463,,2,,0,,0,,54,,0
747,U. Wisconsin-Stout,516,,297,,73,,139,,0,,7,,0
748,Shaw U.,514,,514,,0,,0,,0,,0,,0
749,Abilene Christian U.,507,,383,,0,,119,,0,,5,,0
749,Salve Regina U.,507,,481,,0,,0,,26,,0,,0
751,Arkansas Tech U.,503,,222,,22,,173,,86,,0,,0
751,Lawrence U.,503,,74,,18,,90,,2,,259,,60
753,Fairleigh Dickinson U.,502,,501,,0,,0,,1,,0,,0
754,"SUNY, system office",500,,376,,0,,14,,0,,110,,0
755,Western Oregon U.,496,,300,,196,,0,,0,,0,,0
756,"Eastern New Mexico U., Portales",490,,436,,17,,37,,0,,0,,0
757,U. Redlands,488,,173,,0,,131,,0,,23,,161
758,Pacific Northwest U. of Health Sciences,482,,349,,0,,60,,0,,73,,0
758,Sinte Gleska U.,482,i,469,i,13,i,0,i,0,i,0,i,0
760,Lake Forest C.,481,i,202,i,10,i,262,i,0,i,6,i,1
761,Marist C.,473,,175,,0,,220,,6,,5,,67
762,Winona State U.,469,,1,,455,,0,,13,,0,,0
763,Coe C.,468,,245,,43,,10,,18,,4,,148
764,"Montana State U., Billings",460,,202,,157,,57,,44,,0,,0
764,"U. Pittsburgh, Bradford",460,,239,,189,,28,,0,,4,,0
766,East Stroudsburg U. Pennsylvania,459,,354,,35,,40,,0,,30,,0
766,New Jersey City U.,459,i,365,i,0,i,94,i,0,i,0,i,0
768,Kansas City U. of Medicine and Biosciences,454,,198,,0,,176,,0,,80,,0
769,New York Law School,453,,53,,0,,400,,0,,0,,0
770,East Central U.,452,,396,,7,,32,,10,,7,,0
771,Emporia State U.,449,,328,,10,,109,,0,,2,,0
772,Paine C.,445,,426,,0,,0,,0,,19,,0
773,Georgia C. and State U.,440,,299,,0,,68,,19,,10,,44
774,"Minnesota State U., Moorhead",439,,117,,99,,0,,0,,223,,0
775,"SUNY, Purchase C.",433,,187,,0,,109,,0,,137,,0
776,Colorado Mesa U.,429,,200,,57,,67,,6,,99,,0
777,Maryland Institute C. of Art,427,,76,,67,,62,,2,,125,,95
778,"Indiana U., Kokomo",423,,135,,3,,282,,0,,3,,0
778,Rollins C.,423,,83,,0,,203,,0,,137,,0
778,"U. North Carolina, Pembroke",423,,393,,0,,0,,0,,30,,0
781,Alverno C.,412,,0,,0,,412,,0,,0,,0
782,Southern Arkansas U.,409,,142,,0,,264,,0,,0,,3
783,Evergreen State C.,407,,265,,12,,0,,0,,130,,0
783,Minot State U.,407,,375,,25,,7,,0,,0,,0
783,West Virginia School of Osteopathic Medicine,407,,47,,0,,351,,0,,9,,0
786,Bridgewater State U.,404,,83,,0,,260,,0,,61,,0
786,Hampshire C.,404,,250,,0,,0,,0,,154,,0
788,"SUNY, New Paltz",400,,171,,0,,179,,27,,22,,1
789,Cooper Union for the Advancement of Science and Art,399,,175,,0,,25,,3,,188,,8
790,"SUNY, Cobleskill",397,,186,,21,,100,,0,,35,,55
791,Butler U.,395,,172,,20,,180,,0,,23,,0
792,Pacific Lutheran U.,392,,127,,0,,84,,0,,139,,42
793,Eastern Oregon U.,388,,236,,75,,69,,6,,2,,0
794,"Widener U., Chester",384,,146,,0,,0,,136,,101,,1
795,Philander Smith C.,383,,383,,0,,0,,0,,0,,0
796,"Loyola U., Maryland",382,,146,,0,,202,,0,,34,,0
797,Wabash C.,381,,197,,0,,99,,0,,85,,0
798,St. Norbert C.,380,,61,,4,,315,,0,,0,,0
798,Texas A&M U.-San Antonio,380,,129,,5,,0,,40,,1,,205
800,New York Chiropractic C.,379,,5,,0,,374,,0,,0,,0
801,Johnson State C.,376,,376,,0,,0,,0,,0,,0
801,Southern Utah U.,376,,63,,220,,83,,0,,10,,0
801,U. Evansville,376,,230,,0,,135,,0,,0,,11
804,Texas A&M U.-Central Texas,375,,0,,0,,308,,14,,53,,0
805,Kutztown U. Pennsylvania,374,,269,,33,,72,,0,,0,,0
806,"Wheaton C., Norton",373,,373,,0,,0,,0,,0,,0
807,"Auburn U., Montgomery",369,,88,,0,,233,,0,,48,,0
808,Southeast Missouri State U.,367,,99,,163,,83,,12,,10,,0
809,Juniata C.,366,,191,,2,,105,,37,,31,,0
810,Point Loma Nazarene U.,361,,90,,25,,69,,29,,16,,132
811,Adelphi U.,360,,301,,0,,59,,0,,0,,0
812,Troy U.,358,,48,,99,,135,,76,,0,,0
813,Scripps C.,353,,10,,0,,275,,0,,0,,68
814,"Pennsylvania State U., Lehigh Valley",349,,344,,1,,4,,0,,0,,0
814,Utica C.,349,,0,,0,,349,,0,,0,,0
816,John Carroll U.,348,,211,,69,,55,,13,,0,,0
817,Linfield C.,347,,116,,0,,191,,0,,40,,0
818,Agnes Scott C.,342,,230,,0,,101,,0,,11,,0
818,California Lutheran U.,342,,141,,0,,87,,0,,0,,114
820,Berry C.,338,,26,,0,,265,,0,,47,,0
820,"Pennsylvania State U., Greater Allegheny",338,,338,,0,,0,,0,,0,,0
822,Wittenberg U.,336,,222,,0,,114,,0,,0,,0
823,Westmont C.,335,i,77,i,0,i,115,i,0,i,112,i,31
824,Castleton U.,330,,220,,0,,77,,5,,28,,0
824,Lewis-Clark State C.,330,,253,,75,,2,,0,,0,,0
824,"SUNY, Maritime C.",330,,186,,16,,40,,78,,10,,0
824,Utah Valley U.,330,,287,,7,,36,,0,,0,,0
828,Austin C.,327,,0,,0,,217,,0,,110,,0
828,"U. South Carolina, Spartanburg",327,,201,,0,,99,,5,,22,,0
830,"Pennsylvania State U., Beaver",326,,325,,0,,0,,1,,0,,0
831,Sage Colleges,323,,42,,92,,182,,0,,7,,0
832,Liberty U.,319,,12,,0,,276,,26,,5,,0
833,Illinois C. of Optometry,318,,58,,0,,70,,185,,5,,0
833,North Central C.,318,,103,,0,,215,,0,,0,,0
833,"Southern U., New Orleans",318,,318,,0,,0,,0,,0,,0
836,Bluefield State C.,310,,289,,21,,0,,0,,0,,0
837,Sherman C. of Straight Chiropractic,304,,0,,0,,304,,0,,0,,0
838,DePauw U.,303,,64,,0,,183,,0,,35,,21
839,"SUNY, Fredonia",298,,289,,0,,9,,0,,0,,0
840,"Pennsylvania State U., Wilkes-Barre",295,,295,,0,,0,,0,,0,,0
841,Ramapo C. New Jersey,288,,162,,0,,126,,0,,0,,0
842,Delta State U.,286,,282,,0,,0,,0,,4,,0
842,Moravian C.,286,,13,,0,,255,,0,,18,,0
844,Iona C.,278,,270,,0,,0,,0,,8,,0
845,St. Lawrence U.,277,,18,,0,,193,,61,,5,,0
846,Southwestern Oklahoma State U.,272,,105,,75,,47,,0,,35,,10
847,"Colorado State U., Pueblo",270,,68,,108,,94,,0,,0,,0
847,"Pennsylvania State U., Berks",270,,227,,7,,3,,26,,7,,0
849,U. Central Missouri,269,,250,,4,,13,,0,,2,,0
850,North American U.,268,,0,,0,,268,,0,,0,,0
851,Mayville State U.,267,,267,,0,,0,,0,,0,,0
852,Clarion U. Pennsylvania,263,,28,,9,,219,,0,,0,,7
853,Western Connecticut State U.,260,,2,,92,,123,,0,,43,,0
853,Western New Mexico U.,260,,260,,0,,0,,0,,0,,0
855,U. West Alabama,257,,216,,34,,7,,0,,0,,0
856,Georgia Gwinnett C.,255,,39,,207,,9,,0,,0,,0
856,Missouri Western State U.,255,,164,,11,,75,,0,,5,,0
858,Ohio Wesleyan U.,251,,115,,0,,136,,0,,0,,0
858,Taylor U.,251,,96,,0,,153,,0,,0,,2
858,U. Scranton,251,,49,,0,,164,,0,,38,,0
861,Francis Marion U.,250,,171,,0,,0,,0,,0,,79
861,Northwest Missouri State U.,250,,33,,0,,217,,0,,0,,0
863,Gannon U.,248,,57,,18,,152,,8,,13,,0
863,Lake Erie C. of Osteopathic Medicine,248,,0,,0,,150,,0,,98,,0
863,Wilkes U.,248,,83,,14,,142,,0,,9,,0
866,Simmons C.,247,,107,,0,,25,,1,,72,,42
867,Beloit C.,234,,58,,0,,137,,0,,39,,0
867,Goucher C.,234,,43,,0,,158,,0,,0,,33
869,Indiana Wesleyan U.,231,,18,,0,,213,,0,,0,,0
870,Ferrum C.,227,,149,,2,,0,,0,,0,,76
870,Washington and Lee U.,227,,118,,0,,0,,11,,98,,0
872,Bard C.,221,,59,,0,,162,,0,,0,,0
872,Texas Chiropractic C. Foundation Inc.,221,i,0,i,0,i,207,i,14,i,0,i,0
874,Logan U.,216,,0,,0,,190,,26,,0,,0
875,John Brown U.,214,,131,,3,,79,,0,,0,,1
876,Shepherd U.,213,i,213,i,0,i,0,i,0,i,0,i,0
877,Southern C. of Optometry,212,,0,,0,,137,,69,,0,,6
878,Bryn Athyn C.,211,,0,,0,,145,,0,,66,,0
879,"SUNY, Potsdam",210,,202,,8,,0,,0,,0,,0
880,"Concordia C., Moorhead",209,,80,,3,,120,,0,,6,,0
881,Florida Polytechnic U.,204,,162,,29,,0,,7,,0,,6
882,"Indiana U., Gary",203,,0,,0,,169,,0,,34,,0
883,"Carlos Albizu U., San Juan",198,i,0,i,0,i,198,i,0,i,0,i,0
884,Harding U.,195,,189,,0,,0,,0,,6,,0
885,Bryant U.,191,,85,,0,,100,,2,,4,,0
886,"Pontifical Catholic U. Puerto Rico, Ponce",186,,19,,30,,137,,0,,0,,0
887,Stetson U.,183,,100,,9,,35,,0,,0,,39
888,U. Houston-Victoria,178,,178,,0,,0,,0,,0,,0
889,"Pennsylvania State U., Great Valley School of Graduate Professional Studies",177,,88,,0,,89,,0,,0,,0
890,"Indiana U., Richmond",175,,0,,0,,175,,0,,0,,0
891,Prescott C.,171,,42,,0,,0,,0,,129,,0
891,Turtle Mountain Community C.,171,,171,,0,,0,,0,,0,,0
893,Alderson-Broaddus C.,167,,0,,0,,0,,0,,0,,167
894,Maharishi U. of Management,165,,165,,0,,0,,0,,0,,0
895,National U. of Health Sciences,163,,4,,0,,65,,94,,0,,0
896,U. Wisconsin-Superior,160,i,96,i,24,i,16,i,21,i,2,i,1
897,Dakota Wesleyan U.,154,,154,,0,,0,,0,,0,,0
898,Coppin State U.,153,,61,,79,,0,,0,,0,,13
899,Life U.,151,,0,,0,,151,,0,,0,,0
900,Bentley U.,150,i,85,i,2,i,37,i,10,i,12,i,4
900,California U. Pennsylvania,150,i,78,i,12,i,42,i,7,i,7,i,4
900,Le Moyne C.,150,i,75,i,3,i,46,i,5,i,15,i,6
